{
    "rules": {
      "category": {
        ".indexOn": ["name"],
        ".read": true,
        ".write": "auth.uid == '783fe879-9fad-46b4-84ca-c3b2947d3803'"
      },
      "sub_category": {
        ".indexOn": ["category_id","sub_category_id","order", "name"],
        ".read": true,
        ".write": "auth.uid == '783fe879-9fad-46b4-84ca-c3b2947d3803'"
      },
      "notification": {
        ".indexOn": ["order"],
        ".read": true,
        ".write": "auth.uid == '783fe879-9fad-46b4-84ca-c3b2947d3803'"
      },
      "help": {
        ".indexOn": ["help_id"],
        ".read": true,
        ".write": "auth.uid == '783fe879-9fad-46b4-84ca-c3b2947d3803'"
      },
      "help_master": {
        ".indexOn": ["id"],
        ".read": true,
        ".write": "auth.uid == '783fe879-9fad-46b4-84ca-c3b2947d3803'"
      },
      "line": {
        ".read": true,
        ".write": "auth.uid == '783fe879-9fad-46b4-84ca-c3b2947d3803'"
      },          
      "station": {
        ".read": true,
        ".write": "auth.uid == '783fe879-9fad-46b4-84ca-c3b2947d3803'"
      },                
      "detail": {
        "$detail": {
          ".indexOn": ["music_id"]
        },
        ".read": true,
        ".write": "auth.uid == '783fe879-9fad-46b4-84ca-c3b2947d3803'"
      },
      "detail_summary": {
        "$detail_summary": {
          ".indexOn": ["url_name","music_id"]
        },
        ".read": true,
        ".write": "auth.uid == '783fe879-9fad-46b4-84ca-c3b2947d3803'"
      },
      "relation": {
        "$relation": {
          ".indexOn": ["from_id", "color"]
        },
        ".read": true,
        ".write": "auth.uid == '783fe879-9fad-46b4-84ca-c3b2947d3803'"
      },
      "search": {
        "$search": {
          ".indexOn": ["music_id"]
        },
        ".read": true,
        ".write": "auth.uid == '783fe879-9fad-46b4-84ca-c3b2947d3803'"
      },
      "search_summary": {
        "$id": {
          ".indexOn": ["keyword"]
        },
        ".read": true,
        ".write": "auth.uid == '783fe879-9fad-46b4-84ca-c3b2947d3803'"
      },      
      "favorite": {
        ".indexOn": ["uid"],
        ".read": true,
        ".write": true,
        "$uid": {
          ".write": "auth !== null && (auth.uid === $uid || auth.uid == '783fe879-9fad-46b4-84ca-c3b2947d3803')",
          // grants read access to any user who is logged in with Facebook
          ".read": "auth !== null && (auth.uid === $uid || auth.uid == '783fe879-9fad-46b4-84ca-c3b2947d3803')"
        }
      },
      "push_setting": {
        ".indexOn": ["uuid"],
        ".read": true,
        ".write": true,
        "$uid": {
          ".write": "auth !== null && (auth.uid === $uid || auth.uid == '783fe879-9fad-46b4-84ca-c3b2947d3803')",
          // grants read access to any user who is logged in with Facebook
          ".read": "auth !== null && (auth.uid === $uid || auth.uid == '783fe879-9fad-46b4-84ca-c3b2947d3803')"
        }
      }
    }
}